An Analysis of Glassdoor Data Analyst listings
…
These are what industries pay data analysts the most on average

## # A tibble: 78 x 2
##    Industry      avg_sal
##    <chr>           <dbl>
##  1 News             84  
##  2 Drug             82.5
##  3 Education        69.7
##  4 Sports           69  
##  5 Utilities        67  
##  6 Miscellaneous    66.5
##  7 Chemical         65  
##  8 Gambling         64  
##  9 Venture          62.8
## 10 Biotech          61.4
## # ... with 68 more rows

Now. let’s see how much the industries with the most amount of jobs posted pay data analysts. 

5. What location has the most jobs for each industry

Now I’ll investigate to find out what industry in what cities have the most amount of jobs.My guess would be that New YOrk would have the most positions and the most industries that are currently hiring.

## # A tibble: 794 x 3
## # Groups:   Industry [77]
##    Industry   Location          n
##    <chr>      <chr>         <int>
##  1 IT         New York         46
##  2 Health     New York         36
##  3 Staffing   New York         27
##  4 Investment New York         23
##  5 Staffing   Charlotte        22
##  6 IT         Charlotte        18
##  7 IT         San Francisco    18
##  8 IT         San Jose         18
##  9 Consulting New York         17
## 10 Staffing   Chicago          17
## # ... with 784 more rows
…
